{
  "project_info": {
    "project_number": "504161553527",
    "firebase_url": "https://imaging-72eda.firebaseio.com",
    "project_id": "imaging-72eda",
    "storage_bucket": "imaging-72eda.appspot.com"
  },
  "client": [
    {
      "client_info": {
        "mobilesdk_app_id": "1:504161553527:android:15ac629de9311e32",
        "android_client_info": {
          "package_name": "com.dixit.imaging"
        }
      },
      "oauth_client": [
        {
          "client_id": "504161553527-0qciepg87trjqm32rgcnl58lf8qg0kek.apps.googleusercontent.com",
          "client_type": 1,
          "android_info": {
            "package_name": "com.dixit.imaging",
            "certificate_hash": "ff4db672c6c5dbb846b5bd71688bbd0e49a401ad"
          }
        },
        {
          "client_id": "504161553527-s8q2kk669j7bu0gsu3ioucavmpvn6qn5.apps.googleusercontent.com",
          "client_type": 3
        }
      ],
      "api_key": [
        {
          "current_key": "AIzaSyDwHftUoNGIjsKluAm5MXBGYMFoUuv1ri8"
        }
      ],
      "services": {
        "analytics_service": {
          "status": 1
        },
        "appinvite_service": {
          "status": 2,
          "other_platform_oauth_client": [
            {
              "client_id": "504161553527-s8q2kk669j7bu0gsu3ioucavmpvn6qn5.apps.googleusercontent.com",
              "client_type": 3
            }
          ]
        },
        "ads_service": {
          "status": 2
        }
      }
    }
  ],
  "configuration_version": "1"
}